00000000 .text
000008bf .rodata
000008ec .eh_frame
00000b48 .data
00000b60 .bss
00000000 .comment
00000000 .debug_aranges
00000000 .debug_info
00000000 .debug_abbrev
00000000 .debug_line
00000000 .debug_str
00000000 .debug_loc
00000000 cat.c
00000000 ulib.c
00000110 stosb
00000000 printf.c
00000424 putc
0000044c printint
00000b48 digits.893
00000000 umalloc.c
00000b60 base
00000b68 freep
00000787 morecore
00000135 strcpy
000004fb printf
0000032e memmove
000003bc mknod
00000226 gets
000003f4 getpid
00000000 cat
000007df malloc
00000404 sleep
0000041c getpinfo
00000384 pipe
00000394 write
000003cc fstat
000003a4 kill
000003e4 chdir
000003ac exec
0000037c wait
0000038c read
000003c4 unlink
0000036c fork
000003fc sbrk
0000040c uptime
00000414 settickets
00000b5c __bss_start
000001cf memset
00000068 main
00000169 strcmp
000003ec dup
00000b80 buf
00000295 stat
00000b5c _edata
00000d80 _end
000003d4 link
00000374 exit
000002e3 atoi
000001aa strlen
000003b4 open
000001f3 strchr
000003dc mkdir
0000039c close
000006b0 free
