00000000 .text
00000848 .rodata
00000880 .eh_frame
00000abc .data
00000ad0 .bss
00000000 .comment
00000000 .debug_aranges
00000000 .debug_info
00000000 .debug_abbrev
00000000 .debug_line
00000000 .debug_str
00000000 .debug_loc
00000000 getpinfo.c
00000000 ulib.c
00000098 stosb
00000000 printf.c
000003ac putc
000003d4 printint
00000abc digits.893
00000000 umalloc.c
00000ad0 base
00000ad8 freep
0000070f morecore
000000bd strcpy
00000483 printf
000002b6 memmove
00000344 mknod
000001ae gets
0000037c getpid
00000767 malloc
0000038c sleep
000003a4 getpinfo
0000030c pipe
0000031c write
00000354 fstat
0000032c kill
0000036c chdir
00000334 exec
00000304 wait
00000314 read
0000034c unlink
000002f4 fork
00000384 sbrk
00000394 uptime
0000039c settickets
00000ad0 __bss_start
00000157 memset
00000000 main
000000f1 strcmp
00000374 dup
0000021d stat
00000ad0 _edata
00000adc _end
0000035c link
000002fc exit
0000026b atoi
00000132 strlen
0000033c open
0000017b strchr
00000364 mkdir
00000324 close
00000638 free
