00000000 .text
000008c3 .rodata
0000091c .eh_frame
00000b58 .data
00000b74 .bss
00000000 .comment
00000000 .debug_aranges
00000000 .debug_info
00000000 .debug_abbrev
00000000 .debug_line
00000000 .debug_str
00000000 .debug_loc
00000000 init.c
00000000 ulib.c
00000114 stosb
00000000 printf.c
00000428 putc
00000450 printint
00000b60 digits.893
00000000 umalloc.c
00000b74 base
00000b7c freep
0000078b morecore
00000139 strcpy
000004ff printf
00000b58 argv
00000332 memmove
000003c0 mknod
0000022a gets
000003f8 getpid
000007e3 malloc
00000408 sleep
00000420 getpinfo
00000388 pipe
00000398 write
000003d0 fstat
000003a8 kill
000003e8 chdir
000003b0 exec
00000380 wait
00000390 read
000003c8 unlink
00000370 fork
00000400 sbrk
00000410 uptime
00000418 settickets
00000b74 __bss_start
000001d3 memset
00000000 main
0000016d strcmp
000003f0 dup
00000299 stat
00000b74 _edata
00000b80 _end
000003d8 link
00000378 exit
000002e7 atoi
000001ae strlen
000003b8 open
000001f7 strchr
000003e0 mkdir
000003a0 close
000006b4 free
