00000000 .text
00000b03 .rodata
00000b54 .eh_frame
00000de4 .data
00000df8 .bss
00000000 .comment
00000000 .debug_aranges
00000000 .debug_info
00000000 .debug_abbrev
00000000 .debug_line
00000000 .debug_str
00000000 .debug_loc
00000000 ls.c
00000df8 buf.901
00000000 ulib.c
00000354 stosb
00000000 printf.c
00000668 putc
00000690 printint
00000de4 digits.893
00000000 umalloc.c
00000e08 base
00000e10 freep
000009cb morecore
00000379 strcpy
00000000 fmtname
0000073f printf
00000572 memmove
00000600 mknod
0000046a gets
00000638 getpid
00000a23 malloc
00000648 sleep
00000660 getpinfo
000005c8 pipe
000005d8 write
00000610 fstat
000005e8 kill
00000628 chdir
000005f0 exec
000005c0 wait
000005d0 read
00000608 unlink
000005b0 fork
00000640 sbrk
00000650 uptime
00000658 settickets
00000df8 __bss_start
00000413 memset
00000302 main
000003ad strcmp
00000630 dup
000004d9 stat
00000df8 _edata
00000e14 _end
00000618 link
000000ae ls
000005b8 exit
00000527 atoi
000003ee strlen
000005f8 open
00000437 strchr
00000620 mkdir
000005e0 close
000008f4 free
