00000000 .text
00000833 .rodata
00000870 .eh_frame
00000aac .data
00000ac0 .bss
00000000 .comment
00000000 .debug_aranges
00000000 .debug_info
00000000 .debug_abbrev
00000000 .debug_line
00000000 .debug_str
00000000 .debug_loc
00000000 mkdir.c
00000000 ulib.c
00000084 stosb
00000000 printf.c
00000398 putc
000003c0 printint
00000aac digits.893
00000000 umalloc.c
00000ac0 base
00000ac8 freep
000006fb morecore
000000a9 strcpy
0000046f printf
000002a2 memmove
00000330 mknod
0000019a gets
00000368 getpid
00000753 malloc
00000378 sleep
00000390 getpinfo
000002f8 pipe
00000308 write
00000340 fstat
00000318 kill
00000358 chdir
00000320 exec
000002f0 wait
00000300 read
00000338 unlink
000002e0 fork
00000370 sbrk
00000380 uptime
00000388 settickets
00000ac0 __bss_start
00000143 memset
00000000 main
000000dd strcmp
00000360 dup
00000209 stat
00000ac0 _edata
00000acc _end
00000348 link
000002e8 exit
00000257 atoi
0000011e strlen
00000328 open
00000167 strchr
00000350 mkdir
00000310 close
00000624 free
